468280 562870 470
989404 619481 525
988691 703181 525
233929 402026 441
340176 846300 525
910470 754997 525
593917 687279 509
565797 835232 509
75495 80300 351
829569 389562 509
789594 685824 504
735838 872181 525
269027 726216 509
257354 907850 525
607659 797314 509
553226 127648 470
526088 981855 525
315089 544740 470
713644 887537 525
792082 153633 509
524958 590432 452
70755 280070 443
917697 245707 525
162617 216447 386
225514 442136 449
106634 567176 470
802740 161052 509
835769 315362 509
536819 455936 470
976859 326646 525
359252 549955 470
300653 447808 449
738158 834143 468
786289 911020 525
904628 594628 525
749351 222293 509
173406 741948 509
153534 49482 375
945007 1512 525
273835 296874 389
49510 579769 470
930485 440819 525
782870 906975 525
121413 847106 525
659965 894837 525
680224 855693 525
648733 352200 509
566985 157691 470
338214 130907 443
617263 626319 385
867688 225731 525
213542 801189 509
745488 902383 525
247578 981717 525
819141 634676 504
319540 404997 441
5095 191686 383
901576 43801 525
945805 239222 525
859075 216786 525
732333 721505 411
78742 443897 449
970585 443116 525
902943 586312 525
929440 146709 525
649926 588816 509
925369 17223 525
112961 163532 383
22064 46108 324
331425 28527 443
187374 176594 365
667437 369687 509
625358 238114 470
720518 204609 509
680716 460450 509
763164 638032 504
989347 57412 525
350731 511924 449
84974 520572 470
831946 249275 509
603802 58430 470
245738 730848 509
863580 743040 525
382700 289487 441
153056 471092 449
679367 25672 509
452658 855546 525
618879 490021 470
75267 877260 525
338703 468912 449
20775 595777 470
427359 309693 449
686800 683242 380
918068 218216 525
977944 414597 525
660935 137173 509
100284 694993 509
122615 805691 509
217528 452128 449
878950 978081 507
273986 142108 443
488783 165021 449
671844 560285 509
152049 360756 443
629764 591654 509
425728 239688 449
208663 66715 383
160027 213265 373
612781 739996 509
687714 12046 509
724848 457507 509
738339 112765 509
990327 497509 525
773806 448740 509
881894 964156 507
580509 594227 434
101309 504380 449
562378 664473 509
277142 848395 525
938329 530235 525
694893 144299 509
919392 204801 525
725643 551449 509
542217 257703 470
165826 348941 443
712779 563839 509
694433 171632 509
912544 158222 525
818900 263367 509
574386 291807 470
177498 239437 443
429600 238190 449
855874 34512 525
1789 651539 509
749111 171658 509
598280 635267 509
734454 930788 525
101161 398042 443
389443 260670 441
295617 481427 449
622196 630547 509
277527 827714 509
757196 514705 509
464400 461041 444
716701 582532 509
181538 941492 525
357527 171652 443
451935 789524 509
385681 980115 525
969696 959209 414
608500 235125 470
535865 927829 525
128651 635504 509
674774 959617 525
798357 139821 509
28504 387822 443
358414 118102 443
116578 510229 449
361681 326018 441
340620 220834 443
397515 59288 443
399219 670443 509
299677 105845 443
642069 775442 504
120184 628664 509
862550 547242 525
705921 427172 509
203885 988219 525
780994 171321 509
974156 747701 525
356723 175376 443
525706 637432 509
207211 277019 443
841863 476319 525
648967 484555 509
694290 213262 509
142023 696592 509
885171 877900 370
660417 276178 509
311132 714849 509
194834 423627 449
108838 564795 470
982433 828212 525
722514 284432 509
427301 993782 525
73556 665373 509
474604 711566 509
127280 647579 509
642759 96281 509
320134 828821 509
957834 697441 525
230794 693320 509
228145 887056 525
325736 954913 525
471094 528498 470
798659 142101 509
390454 389873 343
802171 141326 509
223685 17238 386
741394 853370 525
888561 631701 525
93110 41567 351
37615 162744 383
939712 536010 525
256818 586920 470
399003 988873 525
634433 353024 509
105545 298525 443
807955 382382 509
866446 810840 525
615842 721048 509
364810 471529 449
683070 201397 509
978390 742726 525
82988 867370 525
109682 396966 443
640289 684389 442
7818 116902 354
122250 677722 509
207889 606389 470
323956 893474 525
67669 768893 509
757144 986218 525
641078 67147 509
979461 823562 525
913951 807200 525
744276 581001 509
373037 739570 509
334902 54954 443
250351 593034 470
855863 654889 525
521676 292883 470
551211 520995 452
320644 37060 443
760464 321911 509
36928 861069 525
862788 859618 357
491836 340368 449
99009 102998 341
883546 369588 525
902737 726344 525
388796 268115 441
496739 116309 449
899797 787170 525
552426 944070 525
548268 554058 377
332067 805011 509
360413 674042 509
447379 781440 509
276198 825546 509
922796 933751 476
326874 80712 443
197822 773039 509
741926 863853 525
72566 230522 386
444954 967260 525
630223 652763 416
204755 986437 525
