91115 546487 470
350028 651475 509
986861 583149 525
196367 503474 449
175922 63406 383
187217 769985 509
912037 355908 525
248999 856091 525
908853 363320 525
532778 811345 509
611865 716098 509
570129 132361 470
401662 468717 449
572657 394799 470
800615 799942 375
779409 790719 406
606215 718114 509
393963 855910 525
49892 124491 354
480364 558506 470
730129 260895 509
726427 786368 468
578014 641041 509
186660 898668 525
358986 32248 443
439569 976393 525
589499 292107 470
509573 843316 525
395203 856385 525
920952 581575 525
908310 725455 525
171427 936418 525
466065 319012 449
279934 951620 525
307535 648855 509
658497 760282 504
909638 40051 525
676717 662134 442
830898 280372 509
928252 272587 525
296577 655734 509
181364 103146 383
303951 615804 470
36590 968998 525
893265 929234 476
215829 396669 443
346912 947118 525
215788 971201 525
599659 80926 470
458699 938318 525
916938 903238 476
739440 558747 509
316148 513867 470
262264 112488 443
541172 392457 470
184740 703969 509
718790 479152 509
703515 432829 509
648896 467163 509
26821 420081 449
603666 894705 525
889667 906846 445
820573 169840 509
941264 11577 525
460947 96429 449
285841 308454 389
971564 300331 525
66807 519225 470
222414 509726 449
478806 723715 509
657162 581955 509
943269 380671 525
865499 726880 525
42400 63885 340
176658 890040 525
778808 648491 504
171353 348961 443
813244 648967 504
164890 69525 383
274790 645153 509
645684 401501 509
702025 92720 509
231149 938711 525
24570 964907 525
425114 635752 509
666621 208603 509
210205 708534 509
378236 621963 470
253319 337762 407
295710 111497 443
281322 532749 470
41195 313300 443
948369 14746 525
705887 724224 411
104914 482321 449
90618 695995 509
430878 957746 525
434114 501115 444
778466 717023 468
75722 382241 443
560995 986363 525
557473 986867 525
861050 655304 525
697423 630744 442
939343 35556 525
129119 998773 525
413816 678373 509
771164 383298 509
187119 166022 365
115182 308064 443
722649 90501 509
630165 993570 525
921744 335253 525
382099 652007 509
3881 624186 470
841582 528156 525
929788 400096 525
262307 595998 470
290367 816002 509
716938 988271 525
685318 141326 509
121978 885349 525
611279 168392 470
711629 357395 509
441810 569645 470
611725 929894 525
716503 40235 509
211861 775196 509
469566 955717 525
238674 328440 407
39313 553796 470
665307 12885 509
602691 629312 509
857044 16565 525
532232 167750 470
225111 165350 386
14509 441131 449
9965 209065 383
980097 591004 525
855750 480963 525
849792 791268 525
409861 84582 443
326190 760311 509
812372 179521 509
681387 15097 509
135111 356284 443
653585 707876 504
97872 584934 470
268822 32363 443
503988 724953 509
791307 326983 509
31603 605948 470
489186 18334 449
21087 661883 509
514310 506424 470
675718 188641 509
216377 645819 509
74041 522877 470
758155 426369 509
85094 685642 509
477876 124969 449
547318 17817 470
872590 731448 525
296432 192379 443
579607 334714 470
582343 786973 509
927831 697554 525
544765 714839 509
197830 957786 525
460286 985274 525
155342 569409 470
228151 310881 443
534120 733753 509
557685 3175 470
277155 895072 525
308864 447378 449
483294 936533 525
197088 411408 449
582157 902514 525
383404 566239 470
915754 730783 525
792832 816004 468
813775 575711 509
949513 563323 525
671715 721017 504
572968 758925 509
768552 198098 509
713135 190720 509
6132 832838 509
521572 257808 470
580241 935761 525
989288 300701 525
297572 374277 441
246960 364769 441
396080 391556 405
147851 357518 443
330224 80290 443
818704 299170 509
615769 649735 509
176706 198387 365
270869 483245 449
650977 763736 504
53521 905820 525
29218 240670 443
454296 934103 525
