772108 109435
509788 490296
518209 384512
847717 52494
721990 116490
388241 353749
17617 533742
504600 502982
430788 112951
627328 150423
48228 570040
142546 824971
533917 924944
372414 868027
448535 807503
531693 453757
77337 761915
322805 276613
189297 872818
429955 505036
463216 448794
189894 83730
705292 893895
412604 713864
421968 414725
685519 7269
627181 498659
591766 951142
863096 335807
306148 190186
13712 970214
806419 782768
328834 207101
738025 676066
560432 536021
353034 746003
324509 332062
57670 38243
972149 690952
211055 732093
247107 568374
892066 689891
491908 929521
24227 222067
514895 215221
149464 622366
124142 54258
174234 366760
544291 751188
314276 235348
379583 467237
961899 192257
53662 201495
229299 958926
420026 671130
735721 363832
233397 827675
666107 160738
512488 382534
501590 273128
552993 354404
248407 710686
845682 602577
147287 422707
379976 897135
882808 706846
20316 301884
179557 974863
482717 34964
113621 398602
68946 708700
20020 553400
661571 218600
180748 930907
943252 305857
423132 278127
890253 796696
631618 937887
440971 463644
401350 936349
747018 745540
527972 611193
429406 558952
299777 910512
951272 324416
861790 415397
961028 979418
757005 866776
771446 127431
161671 798412
896313 586502
295369 219120
731772 854150
724608 479401
190038 381260
948302 291665
109211 319328
998515 569127
684083 483966
224463 244865
730589 79610
377083 543821
229098 955194
580539 637688
518573 152036
34099 747023
670432 103115
284422 983989
536890 807921
867006 758126
785788 902380
142439 605702
596498 566818
465786 712413
718925 389845
429570 4754
867092 877709
75162 640865
138968 40652
120765 239492
132445 700842
324131 272759
593963 885022
90969 651036
779985 422334
101213 667907
832916 140204
619897 974888
378998 925153
630973 604104
753623 419081
667760 515129
404880 358574
832297 112902
872674 759430
357792 531453
315373 263964
976865 482700
839110 550686
203418 756173
400218 704227
342868 706630
950349 574690
105622 736534
201454 863750
393528 809355
714330 821230
648950 580263
797155 830921
218714 687438
96114 456953
371675 256582
226862 48358
598181 695432
584065 699829
493054 707344
885525 210609
185805 712380
501078 651707
374931 22213
890036 261009
127047 580536
980096 515162
275690 169845
53388 299436
59149 503545
105545 543501
971021 697971
486406 733832
374569 13130
606519 639798
612191 64209
631653 445169
700741 350279
251311 781023
975515 823629
718468 103026
921679 611857
889564 140912
334151 294825
715659 913164
215133 172255
598536 460347
415019 621261
370637 73399
833180 305532
1664 633683
508715 512700
316660 763082
946538 817974
142221 841265
925375 806585
799789 790574
931048 85711
876559 923777
246524 308367
193658 426253
662889 134556
315792 626051
214993 427025
27923 664545
928794 754679
617363 652493
175421 801223
283907 517449
13459 116203
126601 42009
602260 977082
791083 493292
848085 962442
279685 815671
262770 338265
802802 556964
571474 365194
760327 606899
335479 789577
355083 262204
871372 420840
772811 63276
535410 164618
987066 854183
335102 239397
568594 347514
755665 863862
805532 598432
871786 866301
968600 197710
218360 145918
524353 751281
661392 451953
481677 134332
856671 406048
223845 321134
236152 52148
454872 610802
32393 522068
566684 936067
333581 588952
492062 388144
150137 664537
480874 50228
564493 690867
839365 178356
757456 176668
411121 564574
5189 231254
977923 713323
214351 985955
493043 432689
341399 780160
